run/jmp_simple_11/tester.log
********************************************************************************
**** Running test jmp_simple_11...
********************************************************************************
ISim P.20131013 (signature 0x7708f090)
WARNING: A WEBPACK license was found.
WARNING: Please use Xilinx License Configuration Manager to check out a full ISim license.
WARNING: ISim will run in Lite mode. Please refer to the ISim documentation for more information on the differences between the Lite and the Full version.
This is a Lite version of ISim.
Time resolution is 1 ps
Simulator is doing circuit initialization process.
Finished circuit initialization process.
--------------------------------------------------------------------------------
instr count: 1, instr addr: 0000, instr: 033a done in 9 cycles
instr count: 2, instr addr: 0001, instr: 933a done in 9 cycles
instr count: 3, instr addr: 0002, instr: 4b3a done in 9 cycles
instr count: 4, instr addr: 0003, instr: db3a done in 9 cycles
instr count: 5, instr addr: 0004, instr: 273a done in 9 cycles
instr count: 6, instr addr: 0005, instr: b73a done in 9 cycles
instr count: 7, instr addr: 0006, instr: 6f3a done in 9 cycles
instr count: 8, instr addr: 0007, instr: ff3a done in 9 cycles
instr count: 9, instr addr: 0008, instr: 0308 done in 9 cycles
instr count: 10, instr addr: 0009, instr: 8308 done in 29 cycles
instr count: 11, instr addr: 000c, instr: 4308 done in 9 cycles
instr count: 12, instr addr: 000d, instr: 4318 done in 19 cycles
instr count: 13, instr addr: 000f, instr: c308 done in 19 cycles
instr count: 14, instr addr: 0011, instr: 330a done in 9 cycles
instr count: 15, instr addr: 0012, instr: 2b0a done in 9 cycles
instr count: 16, instr addr: 0013, instr: a70a done in 9 cycles
instr count: 17, instr addr: 0014, instr: a348 done in 9 cycles
instr count: 18, instr addr: 0015, instr: 670a done in 49 cycles
instr count: 19, instr addr: 001a, instr: 630a done in 9 cycles
instr count: 20, instr addr: 001b, instr: e30a done in 9 cycles
instr count: 21, instr addr: 001c, instr: eb0a done in 9 cycles
instr count: 22, instr addr: 001d, instr: 0f0a done in 9 cycles
instr count: 23, instr addr: 001e, instr: 8f0a done in 9 cycles
instr count: 24, instr addr: 001f, instr: 4f0a done in 9 cycles
instr count: 25, instr addr: 0020, instr: cf0a done in 9 cycles
instr count: 26, instr addr: 0021, instr: 2f0a done in 9 cycles
instr count: 27, instr addr: 0022, instr: af0a done in 9 cycles
instr count: 28, instr addr: 0023, instr: ef0a done in 9 cycles
instr count: 29, instr addr: 0024, instr: 0350 done in 6 cycles
instr count: 30, instr addr: 0025, instr: 8350 done in 6 cycles
instr count: 31, instr addr: 0027, instr: c350 done in 6 cycles
instr count: 32, instr addr: 0026, instr: 4350 done in 6 cycles
instr count: 33, instr addr: 0028, instr: 2350 done in 6 cycles
instr count: 34, instr addr: 002b, instr: e350 done in 6 cycles
instr count: 35, instr addr: 0029, instr: a350 done in 6 cycles
instr count: 36, instr addr: 002a, instr: 6350 done in 6 cycles
instr count: 37, instr addr: 0024, instr: 0350 done in 6 cycles
instr count: 38, instr addr: 0025, instr: 8350 done in 6 cycles
instr count: 39, instr addr: 0027, instr: c350 done in 6 cycles
instr count: 40, instr addr: 0026, instr: 4350 done in 6 cycles
instr count: 41, instr addr: 0028, instr: 2350 done in 6 cycles
instr count: 42, instr addr: 002b, instr: e350 done in 6 cycles
instr count: 43, instr addr: 0029, instr: a350 done in 6 cycles
instr count: 44, instr addr: 002a, instr: 6350 done in 6 cycles
test ok
--------------------------------------------------------------------------------
Stopped at time : 471835 ns : File "E:/Facultate/An3/Sem 1/AC/Tema3/tema/build/bin/tester/tester.v" Line 365
