run/add_10/tester.log
********************************************************************************
**** Running test add_10...
********************************************************************************
ISim P.20131013 (signature 0x7708f090)
WARNING: A WEBPACK license was found.
WARNING: Please use Xilinx License Configuration Manager to check out a full ISim license.
WARNING: ISim will run in Lite mode. Please refer to the ISim documentation for more information on the differences between the Lite and the Full version.
This is a Lite version of ISim.
Time resolution is 1 ps
Simulator is doing circuit initialization process.
Finished circuit initialization process.
--------------------------------------------------------------------------------
instr count: 1, instr addr: 0000, instr: 033a done in 9 cycles
instr count: 2, instr addr: 0001, instr: 933a done in 9 cycles
instr count: 3, instr addr: 0002, instr: 4b3a done in 9 cycles
instr count: 4, instr addr: 0003, instr: db3a done in 9 cycles
instr count: 5, instr addr: 0004, instr: 273a done in 9 cycles
instr count: 6, instr addr: 0005, instr: b73a done in 9 cycles
instr count: 7, instr addr: 0006, instr: 6f3a done in 9 cycles
instr count: 8, instr addr: 0007, instr: ff3a done in 9 cycles
instr count: 9, instr addr: 0008, instr: 2348 done in 9 cycles
instr count: 10, instr addr: 0009, instr: a348 done in 19 cycles
instr count: 11, instr addr: 000b, instr: 670a done in 9 cycles
instr count: 12, instr addr: 000c, instr: 770a done in 9 cycles
instr count: 13, instr addr: 000d, instr: ef0a done in 19 cycles
instr count: 14, instr addr: 000f, instr: 218a done in 18 cycles
instr count: 15, instr addr: 0011, instr: 318a done in 18 cycles
instr count: 16, instr addr: 0013, instr: 298a done in 18 cycles
instr count: 17, instr addr: 0015, instr: 398a done in 18 cycles
instr count: 18, instr addr: 0017, instr: 210a done in 19 cycles
instr count: 19, instr addr: 0019, instr: 310a done in 19 cycles
instr count: 20, instr addr: 001b, instr: 290a done in 19 cycles
instr count: 21, instr addr: 001d, instr: 390a done in 19 cycles
instr count: 22, instr addr: 001f, instr: 218a done in 18 cycles
instr count: 23, instr addr: 0021, instr: b18a done in 18 cycles
instr count: 24, instr addr: 0023, instr: 698a done in 18 cycles
instr count: 25, instr addr: 0025, instr: f98a done in 18 cycles
instr count: 26, instr addr: 0027, instr: 210a done in 19 cycles
instr count: 27, instr addr: 0029, instr: b10a done in 19 cycles
instr count: 28, instr addr: 002b, instr: 690a done in 19 cycles
instr count: 29, instr addr: 002d, instr: f90a done in 19 cycles
instr count: 30, instr addr: 002f, instr: 198a done in 20 cycles
instr count: 31, instr addr: 0031, instr: 898a done in 20 cycles
instr count: 32, instr addr: 0033, instr: 518a done in 20 cycles
instr count: 33, instr addr: 0035, instr: c18a done in 20 cycles
instr count: 34, instr addr: 0037, instr: 190a done in 21 cycles
instr count: 35, instr addr: 0039, instr: 890a done in 21 cycles
instr count: 36, instr addr: 003b, instr: 510a done in 21 cycles
instr count: 37, instr addr: 003d, instr: c10a done in 21 cycles
test ok
--------------------------------------------------------------------------------
Stopped at time : 399925 ns : File "E:/Facultate/An3/Sem 1/AC/Tema3/tema/build/bin/tester/tester.v" Line 365
