run/pf_bonus/tester.log
********************************************************************************
**** Running test pf_bonus...
********************************************************************************
ISim P.20131013 (signature 0x7708f090)
WARNING: A WEBPACK license was found.
WARNING: Please use Xilinx License Configuration Manager to check out a full ISim license.
WARNING: ISim will run in Lite mode. Please refer to the ISim documentation for more information on the differences between the Lite and the Full version.
This is a Lite version of ISim.
Time resolution is 1 ps
Simulator is doing circuit initialization process.
Finished circuit initialization process.
--------------------------------------------------------------------------------
instr count: 1, instr addr: 0000, instr: 033a done in 9 cycles
instr count: 2, instr addr: 0001, instr: 8304 done in 13 cycles
instr count: 3, instr addr: 0003, instr: 4304 done in 13 cycles
instr count: 4, instr addr: 0005, instr: c304 done in 13 cycles
instr count: 5, instr addr: 0007, instr: 2304 done in 13 cycles
instr count: 6, instr addr: 0009, instr: a304 done in 13 cycles
instr count: 7, instr addr: 000b, instr: 6304 done in 13 cycles
instr count: 8, instr addr: 000d, instr: e304 done in 13 cycles
instr count: 9, instr addr: 000f, instr: 0104 done in 77 cycles
instr count: 10, instr addr: 0018, instr: 0148 done in 23 cycles
instr count: 11, instr addr: 001a, instr: 0021 done in 15 cycles
instr count: 12, instr addr: 001b, instr: 112a done in 21 cycles
instr count: 13, instr addr: 001d, instr: 0021 done in 15 cycles
instr count: 14, instr addr: 001e, instr: 010e done in 25 cycles
instr count: 15, instr addr: 0021, instr: 0021 done in 15 cycles
instr count: 16, instr addr: 0022, instr: c326 done in 12 cycles
instr count: 17, instr addr: 0024, instr: 0039 done in 9 cycles
instr count: 18, instr addr: 0025, instr: 0120 done in 21 cycles
instr count: 19, instr addr: 0027, instr: 033a done in 9 cycles
instr count: 20, instr addr: 0028, instr: 0061 done in 11 cycles
instr count: 21, instr addr: 0029, instr: 0079 done in 9 cycles
instr count: 22, instr addr: 002a, instr: 0039 done in 9 cycles
instr count: 23, instr addr: 002b, instr: 033a done in 9 cycles
instr count: 24, instr addr: 002c, instr: 0160 done in 21 cycles
instr count: 25, instr addr: 002e, instr: 033a done in 9 cycles
instr count: 26, instr addr: 002f, instr: 0061 done in 11 cycles
test ok
--------------------------------------------------------------------------------
Stopped at time : 284075 ns : File "E:/Facultate/An3/Sem 1/AC/Tema3/tema/build/bin/tester/tester.v" Line 365
